{
  "project_info": {
    "project_number": "46212885463",
    "firebase_url": "https://vshare-89c5f.firebaseio.com",
    "project_id": "vshare-89c5f",
    "storage_bucket": "vshare-89c5f.appspot.com"
  },
  "client": [
    {
      "client_info": {
        "mobilesdk_app_id": "1:46212885463:android:51ab6e81196791bc12b992",
        "android_client_info": {
          "package_name": "com.vshare"
        }
      },
      "oauth_client": [
        {
          "client_id": "46212885463-09fsrpv3o50911va58dl9oeh86a390d3.apps.googleusercontent.com",
          "client_type": 3
        }
      ],
      "api_key": [
        {
          "current_key": "AIzaSyDs1bkfETgKmCH6J2TnrwlF27dmyVMkD88"
        }
      ],
      "services": {
        "appinvite_service": {
          "other_platform_oauth_client": [
            {
              "client_id": "46212885463-09fsrpv3o50911va58dl9oeh86a390d3.apps.googleusercontent.com",
              "client_type": 3
            }
          ]
        }
      }
    }
  ],
  "configuration_version": "1"
}